<?xml version="1.0" encoding="UTF-8"?>
<svg width="89px" height="72px" viewBox="0 0 89 72" version="1.1" xmlns="http://www.w3.org/2000/svg" xmlns:xlink="http://www.w3.org/1999/xlink">
    <!-- Generator: Sketch 40 (33762) - http://www.bohemiancoding.com/sketch -->
    <title>camera copy</title>
    <desc>Created with Sketch.</desc>
    <defs></defs>
    <g id="Create-your-photo" stroke="none" stroke-width="1" fill="none" fill-rule="evenodd" opacity="0.5">
        <g id="UI_Create-your-photo---Step-1" transform="translate(-996.000000, -300.000000)" fill="#969CAD">
            <g id="camera-copy" transform="translate(996.000000, 300.000000)">
                <path d="M44.5,22.0408163 C34.6847833,22.0408163 26.7,29.9505306 26.7,39.6734694 C26.7,49.3964082 34.6847833,57.3061224 44.5,57.3061224 C54.3152167,57.3061224 62.3,49.3964082 62.3,39.6734694 C62.3,29.9505306 54.3152167,22.0408163 44.5,22.0408163" id="Fill-835"></path>
                <path d="M81.8814833,14.6938776 L69.23755,14.6938776 L63.3042167,0 L25.6957833,0 L19.76245,14.6938776 L17.8,14.6938776 L17.8,7.34693878 L8.9,7.34693878 L8.9,14.6938776 L7.11851667,14.6938776 C3.19213333,14.6938776 0,17.856 0,21.7454694 L0,64.898449 C0,68.8143673 3.21586667,72 7.16895,72 L81.83105,72 C85.7841333,72 89,68.8143673 89,64.898449 L89,21.7454694 C89,17.856 85.8078667,14.6938776 81.8814833,14.6938776 L81.8814833,14.6938776 L81.8814833,14.6938776 Z M11.8666667,10.2857143 L14.8333333,10.2857143 L14.8333333,14.6938776 L11.8666667,14.6938776 L11.8666667,10.2857143 L11.8666667,10.2857143 Z M44.5,66.122449 C29.7779167,66.122449 17.8,54.2571429 17.8,39.6734694 C17.8,25.0897959 29.7779167,13.2244898 44.5,13.2244898 C59.2220833,13.2244898 71.2,25.0897959 71.2,39.6734694 C71.2,54.2571429 59.2220833,66.122449 44.5,66.122449 L44.5,66.122449 L44.5,66.122449 Z M77.1333333,32.3265306 C73.8611,32.3265306 71.2,29.690449 71.2,26.4489796 C71.2,23.2075102 73.8611,20.5714286 77.1333333,20.5714286 C80.4055667,20.5714286 83.0666667,23.2075102 83.0666667,26.4489796 C83.0666667,29.690449 80.4055667,32.3265306 77.1333333,32.3265306 L77.1333333,32.3265306 L77.1333333,32.3265306 Z" id="Fill-836"></path>
            </g>
        </g>
    </g>
</svg>