<?xml version="1.0" encoding="UTF-8"?>
<svg width="27px" height="17px" viewBox="0 0 27 17" version="1.1" xmlns="http://www.w3.org/2000/svg" xmlns:xlink="http://www.w3.org/1999/xlink">
    <!-- Generator: Sketch 40 (33762) - http://www.bohemiancoding.com/sketch -->
    <title>Google +</title>
    <desc>Created with Sketch.</desc>
    <defs></defs>
    <g id="Symbols" stroke="none" stroke-width="1" fill="none" fill-rule="evenodd">
        <g id="pre-footer" transform="translate(-792.000000, -254.000000)" fill="#414656">
            <g id="social">
                <g transform="translate(615.000000, 251.000000)">
                    <g id="Google-+" transform="translate(177.000000, 3.000000)">
                        <path d="M8.59090909,7.27346939 L8.59090909,10.1828571 L13.4631818,10.1828571 C13.2668182,11.4314694 11.9904545,13.8438367 8.59090909,13.8438367 C5.65772727,13.8438367 3.26454545,11.4435918 3.26454545,8.48571429 C3.26454545,5.52783673 5.65772727,3.12759184 8.59090909,3.12759184 C10.26,3.12759184 11.3768182,3.83069388 12.015,4.43681633 L14.3468182,2.21840816 C12.8495455,0.83644898 10.9104545,0 8.59090909,0 C3.84136364,0 0,3.79432653 0,8.48571429 C0,13.177102 3.84136364,16.9714286 8.59090909,16.9714286 C13.5490909,16.9714286 16.8381818,13.5286531 16.8381818,8.67967347 C16.8381818,8.12204082 16.7768182,7.6977551 16.7031818,7.27346939 L8.59090909,7.27346939 L8.59090909,7.27346939 Z" id="Combined-Shape"></path>
                        <polygon id="Shape-Copy" points="27 7.27346939 24.5454545 7.27346939 24.5454545 4.84897959 22.0909091 4.84897959 22.0909091 7.27346939 19.6363636 7.27346939 19.6363636 9.69795918 22.0909091 9.69795918 22.0909091 12.122449 24.5454545 12.122449 24.5454545 9.69795918 27 9.69795918"></polygon>
                    </g>
                </g>
            </g>
        </g>
    </g>
</svg>