<?xml version="1.0" encoding="UTF-8"?>
<svg width="22px" height="29px" viewBox="0 0 22 29" version="1.1" xmlns="http://www.w3.org/2000/svg" xmlns:xlink="http://www.w3.org/1999/xlink">
    <!-- Generator: Sketch 40 (33762) - http://www.bohemiancoding.com/sketch -->
    <title>Group</title>
    <desc>Created with Sketch.</desc>
    <defs></defs>
    <g id="Symbols" stroke="none" stroke-width="1" fill="none" fill-rule="evenodd" stroke-linecap="round">
        <g id="Share-photo" transform="translate(-202.000000, -465.000000)" stroke-width="3" stroke="#969CAD">
            <g id="download-photo" transform="translate(204.000000, 467.000000)">
                <g id="Group">
                    <path d="M14.2277193,16.8602039 C16.7372451,15.2235855 18.3960205,12.3915143 18.3960205,9.17201534 C18.3960205,4.10645114 14.2895693,0 9.22400511,0 C4.15844092,0 0.0519897703,4.10645114 0.0519897703,9.17201534 C0.0519897703,12.3318622 1.64986583,15.1185052 4.08168008,16.7680063" id="Oval"></path>
                    <path d="M9,11 L9,23.632746" id="Line"></path>
                    <polyline id="Line" stroke-linejoin="round" points="5 21.0283203 9 25.0283203 13.4404297 21"></polyline>
                </g>
            </g>
        </g>
    </g>
</svg>