<?xml version="1.0" encoding="UTF-8"?>
<svg width="14px" height="12px" viewBox="0 0 14 12" version="1.1" xmlns="http://www.w3.org/2000/svg" xmlns:xlink="http://www.w3.org/1999/xlink">
    <!-- Generator: Sketch 40 (33762) - http://www.bohemiancoding.com/sketch -->
    <title>Path</title>
    <desc>Created with Sketch.</desc>
    <defs></defs>
    <g id="Symbols" stroke="none" stroke-width="1" fill="none" fill-rule="evenodd">
        <g id="Share-photo" transform="translate(-98.000000, -467.000000)" fill="#60C0F6">
            <g id="share-twitter" transform="translate(98.000000, 466.000000)">
                <path d="M6.79779886,4.20962495 L6.82814618,4.71003793 L6.32235757,4.64876287 C4.48128705,4.41387514 2.87287928,3.61729938 1.50725005,2.27946059 L0.839609086,1.61564745 L0.66764096,2.10584792 C0.303473164,3.19858647 0.536135922,4.35260009 1.29481883,5.12875083 C1.69944972,5.55767625 1.60840777,5.61895131 0.910419491,5.36363856 C0.66764096,5.28193848 0.455209745,5.22066342 0.434978201,5.25130095 C0.364167796,5.32278852 0.606946327,6.25212691 0.799145997,6.61977727 C1.06215607,7.13040276 1.59829199,7.63081574 2.18500678,7.92697853 L2.68067961,8.16186625 L2.09396483,8.17207876 C1.52748159,8.17207876 1.50725005,8.18229127 1.56794468,8.39675398 C1.77026012,9.06056712 2.56940612,9.7652303 3.45959406,10.0716056 L4.08677194,10.2860683 L3.54052024,10.6128686 C2.73125847,11.0826441 1.78037589,11.3481693 0.829493314,11.3685943 C0.374283568,11.3788069 0,11.4196569 0,11.4502944 C0,11.5524195 1.2341242,12.1243201 1.95234402,12.3489953 C4.10700348,13.0128084 6.66629383,12.7268581 8.58829053,11.5932696 C9.95391977,10.7864813 11.319549,9.18311724 11.9568426,7.63081574 C12.3007789,6.80360245 12.6447151,5.29215099 12.6447151,4.56706279 C12.6447151,4.09728734 12.6750625,4.03601228 13.2415457,3.47432424 C13.5753662,3.14752393 13.8889551,2.79008608 13.9496498,2.68796098 C14.0508075,2.4939233 14.0406917,2.4939233 13.5247873,2.66753596 C12.6649467,2.97391126 12.5435574,2.93306122 12.9684199,2.47349828 C13.2820088,2.14669796 13.6562924,1.55437239 13.6562924,1.38075972 C13.6562924,1.35012219 13.5045558,1.40118474 13.3325877,1.49309733 C13.1505038,1.59522243 12.7458729,1.74841008 12.4423997,1.84032267 L11.896148,2.01393533 L11.4004752,1.67692251 C11.1273493,1.49309733 10.74295,1.28884714 10.5406345,1.22757208 C10.0247302,1.08459694 9.23569994,1.10502196 8.77037443,1.26842212 C7.50590291,1.72798506 6.70675692,2.9126362 6.79779886,4.20962495 Z" id="Path"></path>
            </g>
        </g>
    </g>
</svg>